{
  "rules": {
    "users":{
      
      ".write": "auth.uid !== null && newData.child('uid').val() === auth.uid",
      "$user_id":{
        ".read": "auth.uid === $user_id",
        ".write": "auth.uid === $user_id"
          
      }
    },
      
    "chats": {
     	".write": "auth.uid !== null && newData.child('members').child(auth.uid).val() === true",
      "$chat_id": {
        ".write": "auth.uid !== null && newData.child('lastMessage').val().length < 300 ",
        ".read": "auth.uid !== null && data.child('members').child(auth.uid).val() === true"
      }
    },
      
    "messages": {
      ".write": "auth.uid !== null",
      "$chat_id": {
        ".write": "auth.uid !== null",
        ".read": "auth.uid !== null && root.child('chats').child($chat_id).child('members').child(auth.uid).val() === true",
        ".validate": "newData.child('message').isString() && newData.child('message').val().length < 300"
        
      }
    }
  }
}